{
    "name": "tourtip",
    "title": "TourTip - jQuery Overlay Tour",
    "description": "TourTip is an interactive visual guide to elements on web pages.",
    "keywords": [
        "tour",
        "tip",
		"overlay",
		"help",
		"guide",
		"ui",
		"jquery"
    ],
    "version": "1.0.7",
    "author": {
        "name": "Mehrdad Noroozi Eghbali"
    },
    "maintainers": [
        {
            "name": "Mehrdad Noroozi Eghbali",
            "email": "mehrdad@codesells.com"
        }
    ],
    "licenses": [
        {
            "type": "MIT",
            "url": "https://github.com/jquery/jquery-color/blob/2.1.2/MIT-LICENSE.txt"
        }
    ],
    "bugs": "http://tinytools.codesells.com/Contact",
    "homepage": "http://tinytools.codesells.com/TourTip",
    "docs": "http://tinytools.codesells.com/TourTip",
    "download": "http://tinytools.codesells.com/TourTip",
    "dependencies": {
        "jquery": ">=1.9.1"
    }
}